{
  "recipient": {
    "id": "recipientId"
  },
  "message": {
    "attachment": {
      "type": "template",
      "payload": {
        "template_type": "button",
        "text": "Welcome. Link your account.",
        "buttons":[{
          "type": "account_link",
          "url": "SERVER_URL/authorize"
        }]
      }
    }
  }
}