{
    "appSecret": "d437bb36020ba17c81032cb2ff5fccb0",
    "appId": "265459247417618",
    "validationToken": "SOFTOGRAPHBOT",
    "serverURL": "https://9e3528e8.ngrok.io/",
    "jwtPrivateKey": "Slim Shady",
    "db": "mongodb://localhost/dynamicBot"
}
